/*!
	Copyright (c) 2018 Jed Watson.
	Licensed under the MIT License (MIT), see
	http://jedwatson.github.io/classnames
*/

/*! exports provided: default */

/*! no static exports found */

/*! react */

/*!******************************!*\
        !*** ./src/react-webcam.tsx ***!
        \******************************/

/*!**************************************************************************************!*\
        !*** external {"root":"React","commonjs2":"react","commonjs":"react","amd":"react"} ***!
        \**************************************************************************************/

/**
 * @license React
 * react-dom.production.min.js
 *
 * Copyright (c) Facebook, Inc. and its affiliates.
 *
 * This source code is licensed under the MIT license found in the
 * LICENSE file in the root directory of this source tree.
 */

/**
 * @license React
 * react-jsx-runtime.production.min.js
 *
 * Copyright (c) Facebook, Inc. and its affiliates.
 *
 * This source code is licensed under the MIT license found in the
 * LICENSE file in the root directory of this source tree.
 */

/**
 * @license React
 * react.production.min.js
 *
 * Copyright (c) Facebook, Inc. and its affiliates.
 *
 * This source code is licensed under the MIT license found in the
 * LICENSE file in the root directory of this source tree.
 */

/**
 * @license React
 * scheduler.production.min.js
 *
 * Copyright (c) Facebook, Inc. and its affiliates.
 *
 * This source code is licensed under the MIT license found in the
 * LICENSE file in the root directory of this source tree.
 */

/**
 * @license qrcode.react
 * Copyright (c) Paul O'Shannessy
 * SPDX-License-Identifier: ISC
 */

/**
 * @remix-run/router v1.12.0
 *
 * Copyright (c) Remix Software Inc.
 *
 * This source code is licensed under the MIT license found in the
 * LICENSE.md file in the root directory of this source tree.
 *
 * @license MIT
 */

/**
 * React Router v6.19.0
 *
 * Copyright (c) Remix Software Inc.
 *
 * This source code is licensed under the MIT license found in the
 * LICENSE.md file in the root directory of this source tree.
 *
 * @license MIT
 */
