<svg xmlns="http://www.w3.org/2000/svg" xmlns:xlink="http://www.w3.org/1999/xlink" width="18" height="18" viewBox="0 0 18 18">
  <defs>
    <clipPath id="clip-path">
      <rect id="Rectangle_1728" data-name="Rectangle 1728" width="18" height="18" transform="translate(2216 -593)" fill="#13289f"/>
    </clipPath>
  </defs>
  <g id="DropDown" transform="translate(18) rotate(90)">
    <g id="Mask_Group_63" data-name="Mask Group 63" transform="translate(593 2234) rotate(-90)" clip-path="url(#clip-path)">
      <g id="Group_12524" data-name="Group 12524" transform="translate(2523.5 15711.5) rotate(180)">
        <line id="Line_246" data-name="Line 246" x2="7" y2="7" transform="translate(295.5 16288.5)" fill="none" stroke="#13289f" stroke-linecap="round" stroke-width="2"/>
        <line id="Line_247" data-name="Line 247" x1="7" y2="7" transform="translate(295.5 16295.5)" fill="none" stroke="#13289f" stroke-linecap="round" stroke-width="2"/>
      </g>
    </g>
  </g>
</svg>
